<svg xmlns="http://www.w3.org/2000/svg" width="25.311" height="26.188" viewBox="0 0 25.311 26.188">
  <g id="Group_376" data-name="Group 376" transform="translate(-1333.177 -650.973)">
    <path id="Path_11339" data-name="Path 11339" d="M1435.134,754.852v-5.744l1.978-1.978" transform="translate(-83.853 -78.691)" fill="none" stroke="#5dff00" stroke-miterlimit="10" stroke-width="2"/>
    <path id="Path_11340" data-name="Path 11340" d="M1407.2,721.385v-7.3l7.253-7.253" transform="translate(-60.654 -45.224)" fill="none" stroke="#5dff00" stroke-miterlimit="10" stroke-width="2"/>
    <path id="Path_11341" data-name="Path 11341" d="M1378.814,711.852v-3.568l5.314-5.314-2.1-2.1" transform="translate(-37.075 -40.272)" fill="none" stroke="#5dff00" stroke-miterlimit="10" stroke-width="2"/>
    <circle id="Ellipse_286" data-name="Ellipse 286" cx="2.114" cy="2.114" r="2.114" transform="translate(1353.259 657.966)" fill="none" stroke="#5dff00" stroke-miterlimit="10" stroke-width="2"/>
    <circle id="Ellipse_287" data-name="Ellipse 287" cx="2.114" cy="2.114" r="2.114" transform="translate(1352.721 664.81)" fill="none" stroke="#5dff00" stroke-miterlimit="10" stroke-width="2"/>
    <circle id="Ellipse_288" data-name="Ellipse 288" cx="2.114" cy="2.114" r="2.114" transform="translate(1339.625 671.933)" fill="none" stroke="#5dff00" stroke-miterlimit="10" stroke-width="2"/>
    <circle id="Ellipse_289" data-name="Ellipse 289" cx="2.114" cy="2.114" r="2.114" transform="translate(1334.834 656.94)" fill="none" stroke="#5dff00" stroke-miterlimit="10" stroke-width="2"/>
    <circle id="Ellipse_290" data-name="Ellipse 290" cx="2.114" cy="2.114" r="2.114" transform="translate(1334.177 665.821)" fill="none" stroke="#5dff00" stroke-miterlimit="10" stroke-width="2"/>
    <circle id="Ellipse_291" data-name="Ellipse 291" cx="2.114" cy="2.114" r="2.114" transform="translate(1347.32 656.266)" fill="none" stroke="#5dff00" stroke-miterlimit="10" stroke-width="2"/>
    <path id="Path_11342" data-name="Path 11342" d="M1355.511,705.364l3.495-3.495-2.626-2.626" transform="translate(-17.72 -38.918)" fill="none" stroke="#5dff00" stroke-miterlimit="10" stroke-width="2"/>
    <path id="Path_11343" data-name="Path 11343" d="M1359.131,657.524l5.136-5.136,4.466,4.466" transform="translate(-20.727)" fill="none" stroke="#5dff00" stroke-miterlimit="10" stroke-width="2"/>
  </g>
</svg>
