<svg xmlns="http://www.w3.org/2000/svg" width="32.5" height="29.144" viewBox="0 0 32.5 29.144">
  <g id="Group_1406" data-name="Group 1406" transform="translate(-287 -305.061)">
    <g id="Group_6" data-name="Group 6" transform="translate(304.673 312.317)">
      <path id="Rectangle_2-2" data-name="Rectangle 2-2" d="M942.857,1374.865l-7.276,10.766-4.081-2.765,7.249-10.766Z" transform="translate(-929.03 -1372.1)" fill="none" stroke="#5dff00" stroke-linecap="round" stroke-linejoin="round" stroke-width="2"/>
      <path id="Path_4-2" data-name="Path 4-2" d="M923.562,1419.9l3.49,2.363-4.752,3.249Z" transform="translate(-922.3 -1407.066)" fill="none" stroke="#5dff00" stroke-linecap="round" stroke-linejoin="round" stroke-width="2"/>
    </g>
    <path id="Path_5" data-name="Path 5" d="M879.612,1375.944H862.885a2.693,2.693,0,0,1-2.685-2.685v-21.774a2.693,2.693,0,0,1,2.685-2.685h16a2.693,2.693,0,0,1,2.685,2.685v3.651" transform="translate(-572.2 -1042.739)" fill="none" stroke="#5dff00" stroke-linecap="round" stroke-linejoin="round" stroke-width="2"/>
    <g id="Group_8" data-name="Group 8" transform="translate(291.786 313.123)">
      <line id="Line_4" data-name="Line 4" x2="12.082" transform="translate(0 10.686)" fill="none" stroke="#5dff00" stroke-linecap="round" stroke-linejoin="round" stroke-width="2"/>
      <line id="Line_5" data-name="Line 5" x2="12.082" transform="translate(0 5.343)" fill="none" stroke="#5dff00" stroke-linecap="round" stroke-linejoin="round" stroke-width="2"/>
      <path id="Path_11276" data-name="Path 11276" d="M0,0H12.082" transform="translate(0)" fill="none" stroke="#5dff00" stroke-linecap="round" stroke-width="2"/>
    </g>
  </g>
</svg>
